<?xml version="1.0" encoding="utf-8"?>
<!-- Generator: Adobe Illustrator 21.1.0, SVG Export Plug-In . SVG Version: 6.00 Build 0)  -->
<svg version="1.1" id="Layer_1" xmlns="http://www.w3.org/2000/svg" xmlns:xlink="http://www.w3.org/1999/xlink" x="0px" y="0px"
	 viewBox="0 0 16 16" style="enable-background:new 0 0 16 16;" xml:space="preserve">
<style type="text/css">
	.st0{fill:#AAAAAA;}
</style>
<g>
	<g>
		<path class="st0" d="M8,1c3.7,0,5.4,1,6,1.4V7c0,2.4-1,4.4-3.1,6.1C9.8,14,8.6,14.6,8,14.9C6.7,14.2,2,11.4,2,7V2.4
			C2.6,2,4.3,1,8,1 M8,0C2.6,0,1,2,1,2s0,2.1,0,5c0,5.9,7,9,7,9s7-2.5,7-9c0-2.9,0-5,0-5S13.4,0,8,0L8,0z"/>
	</g>
</g>
<g>
	<path class="st0" d="M5.3,6.3c0-0.4,0.1-0.8,0.2-1.2C5.6,4.7,5.8,4.4,6,4.2c0.3-0.3,0.6-0.5,0.9-0.6c0.4-0.1,0.8-0.2,1.2-0.2
		c0.4,0,0.7,0.1,1,0.2S9.8,3.8,10,4s0.4,0.5,0.6,0.8s0.2,0.6,0.2,1c0,0.3,0,0.5-0.1,0.7S10.5,6.9,10.4,7c-0.1,0.1-0.2,0.3-0.3,0.4
		C9.9,7.5,9.8,7.7,9.7,7.8C9.5,7.9,9.4,8,9.3,8.1C9.1,8.3,9,8.4,8.9,8.5S8.8,8.9,8.7,9.1C8.7,9.3,8.6,9.5,8.6,9.8H7.3
		c0-0.4,0-0.7,0.1-0.9s0.1-0.5,0.2-0.6s0.2-0.3,0.3-0.5C8,7.6,8.1,7.5,8.3,7.4C8.4,7.2,8.5,7.1,8.6,7C8.8,7,8.9,6.8,9,6.7
		C9,6.6,9.1,6.5,9.2,6.3C9.2,6.2,9.2,6,9.2,5.8c0-0.2,0-0.4-0.1-0.6S8.9,4.9,8.8,4.8C8.7,4.7,8.6,4.6,8.4,4.6
		c-0.1,0-0.3-0.1-0.4-0.1C7.6,4.5,7.2,4.7,7,5C6.7,5.3,6.6,5.7,6.6,6.3H5.3z M7.2,10.6h1.6v1.5H7.2V10.6z"/>
</g>
</svg>
